Simulating qSIP Data
…
            # finally, add to the growing dataframe
            df <- rbind(df, df2) %>%
              dplyr::mutate(across(where(is.character), as_factor))
          }
        }
      }
    }
  }
}

tib %>% arrange(desc(COUNT))

# A tibble: 1,800 × 6
   TAXA  REP   COUNT TREATMENT TIMEPOINT ISOTOPE  
   <chr> <chr> <int> <chr>     <chr>     <chr>    
 1 taxa1 A      6052 TRT2      early     15N      
 2 taxa1 B      5925 TRT1      early     15N      
 3 taxa1 A      5589 TRT1      early     Unlabeled
 4 taxa1 B      5579 TRT1      early     Unlabeled
 5 taxa1 B      5330 TRT2      early     13C      
 6 taxa1 C      5228 TRT2      early     15N      
 7 taxa1 B      4382 TRT2      early     15N      
 8 taxa1 C      3357 TRT2      early     Unlabeled
 9 taxa2 A      3217 TRT2      early     15N      
10 taxa2 B      3204 TRT1      early     15N      
# ℹ 1,790 more rows
…
